---
http_interactions:
- request:
    method: get
    uri: https://api.pexels.com/v1/search?query=Peru
    body:
      encoding: US-ASCII
      string: ''
    headers:
      Authorization:
      - 1Jjh5Hrw1QuqLPeJRzo933AgS5Xquit5k9Eepd4dYqB4OM7hL7UL6Wys
      User-Agent:
      - Faraday v2.7.10
      Accept-Encoding:
      - gzip;q=1.0,deflate;q=0.6,identity;q=0.3
      Accept:
      - "*/*"
  response:
    status:
      code: 200
      message: OK
    headers:
      Date:
      - Mon, 07 Aug 2023 21:11:20 GMT
      Content-Type:
      - application/json; charset=utf-8
      Transfer-Encoding:
      - chunked
      Connection:
      - keep-alive
      Cf-Ray:
      - 7f3282ec986a1f3a-DEN
      Cf-Cache-Status:
      - MISS
      Access-Control-Allow-Origin:
      - "*"
      Cache-Control:
      - max-age=86400
      Etag:
      - W/"7addc2502a3152e88327f8f36aac3b68"
      Expires:
      - Tue, 08 Aug 2023 21:11:20 GMT
      Access-Control-Allow-Headers:
      - Accept, Content-Type, Content-Length, Accept-Encoding, Authorization, User-Agent
      X-Frame-Options:
      - SAMEORIGIN
      X-Ratelimit-Limit:
      - '25000'
      X-Ratelimit-Remaining:
      - '24999'
      X-Ratelimit-Reset:
      - '1694034679'
      X-Request-Id:
      - 5fc97b3c-5c5b-4897-894e-c705790753b2
      X-Runtime:
      - '0.068249'
      X-Server:
      - anteater
      Set-Cookie:
      - __cf_bm=qjGYLAdC7MDz4qZsmslxkuELPxPCbRT7F2LzIT7o.D0-1691442680-0-AYplvLyVuOl8Qe1oFIGbR8m3/mdWm/p9Lbvv86AMcIBPTj37NnvuLhILMjftmnF7yvxWGx3KiaA0SK5I1nGCLKo=;
        path=/; expires=Mon, 07-Aug-23 21:41:20 GMT; domain=.pexels.com; HttpOnly;
        Secure; SameSite=None
      Vary:
      - Accept-Encoding
      Server:
      - cloudflare
      Alt-Svc:
      - h3=":443"; ma=86400
    body:
      encoding: ASCII-8BIT
      string: '{"page":1,"per_page":15,"photos":[{"id":90597,"width":3744,"height":5616,"url":"https://www.pexels.com/photo/top-view-of-ancient-ruins-under-white-cloudy-sky-90597/","photographer":"Amanda
        Kerr","photographer_url":"https://www.pexels.com/@akcreativespace","photographer_id":19167,"avg_color":"#5C5E5C","src":{"original":"https://images.pexels.com/photos/90597/pexels-photo-90597.jpeg","large2x":"https://images.pexels.com/photos/90597/pexels-photo-90597.jpeg?auto=compress\u0026cs=tinysrgb\u0026dpr=2\u0026h=650\u0026w=940","large":"https://images.pexels.com/photos/90597/pexels-photo-90597.jpeg?auto=compress\u0026cs=tinysrgb\u0026h=650\u0026w=940","medium":"https://images.pexels.com/photos/90597/pexels-photo-90597.jpeg?auto=compress\u0026cs=tinysrgb\u0026h=350","small":"https://images.pexels.com/photos/90597/pexels-photo-90597.jpeg?auto=compress\u0026cs=tinysrgb\u0026h=130","portrait":"https://images.pexels.com/photos/90597/pexels-photo-90597.jpeg?auto=compress\u0026cs=tinysrgb\u0026fit=crop\u0026h=1200\u0026w=800","landscape":"https://images.pexels.com/photos/90597/pexels-photo-90597.jpeg?auto=compress\u0026cs=tinysrgb\u0026fit=crop\u0026h=627\u0026w=1200","tiny":"https://images.pexels.com/photos/90597/pexels-photo-90597.jpeg?auto=compress\u0026cs=tinysrgb\u0026dpr=1\u0026fit=crop\u0026h=200\u0026w=280"},"liked":false,"alt":"Top
        View of Ancient Ruins Under White Cloudy Sky"},{"id":2356045,"width":5421,"height":3614,"url":"https://www.pexels.com/photo/machu-pichu-peru-2356045/","photographer":"Errin
        Casano","photographer_url":"https://www.pexels.com/@errin-casano-1240439","photographer_id":1240439,"avg_color":"#788385","src":{"original":"https://images.pexels.com/photos/2356045/pexels-photo-2356045.jpeg","large2x":"https://images.pexels.com/photos/2356045/pexels-photo-2356045.jpeg?auto=compress\u0026cs=tinysrgb\u0026dpr=2\u0026h=650\u0026w=940","large":"https://images.pexels.com/photos/2356045/pexels-photo-2356045.jpeg?auto=compress\u0026cs=tinysrgb\u0026h=650\u0026w=940","medium":"https://images.pexels.com/photos/2356045/pexels-photo-2356045.jpeg?auto=compress\u0026cs=tinysrgb\u0026h=350","small":"https://images.pexels.com/photos/2356045/pexels-photo-2356045.jpeg?auto=compress\u0026cs=tinysrgb\u0026h=130","portrait":"https://images.pexels.com/photos/2356045/pexels-photo-2356045.jpeg?auto=compress\u0026cs=tinysrgb\u0026fit=crop\u0026h=1200\u0026w=800","landscape":"https://images.pexels.com/photos/2356045/pexels-photo-2356045.jpeg?auto=compress\u0026cs=tinysrgb\u0026fit=crop\u0026h=627\u0026w=1200","tiny":"https://images.pexels.com/photos/2356045/pexels-photo-2356045.jpeg?auto=compress\u0026cs=tinysrgb\u0026dpr=1\u0026fit=crop\u0026h=200\u0026w=280"},"liked":false,"alt":"Machu
        Pichu, Peru"},{"id":259967,"width":4608,"height":3456,"url":"https://www.pexels.com/photo/ancient-architecture-city-clouds-259967/","photographer":"Pixabay","photographer_url":"https://www.pexels.com/@pixabay","photographer_id":2659,"avg_color":"#8D9389","src":{"original":"https://images.pexels.com/photos/259967/pexels-photo-259967.jpeg","large2x":"https://images.pexels.com/photos/259967/pexels-photo-259967.jpeg?auto=compress\u0026cs=tinysrgb\u0026dpr=2\u0026h=650\u0026w=940","large":"https://images.pexels.com/photos/259967/pexels-photo-259967.jpeg?auto=compress\u0026cs=tinysrgb\u0026h=650\u0026w=940","medium":"https://images.pexels.com/photos/259967/pexels-photo-259967.jpeg?auto=compress\u0026cs=tinysrgb\u0026h=350","small":"https://images.pexels.com/photos/259967/pexels-photo-259967.jpeg?auto=compress\u0026cs=tinysrgb\u0026h=130","portrait":"https://images.pexels.com/photos/259967/pexels-photo-259967.jpeg?auto=compress\u0026cs=tinysrgb\u0026fit=crop\u0026h=1200\u0026w=800","landscape":"https://images.pexels.com/photos/259967/pexels-photo-259967.jpeg?auto=compress\u0026cs=tinysrgb\u0026fit=crop\u0026h=627\u0026w=1200","tiny":"https://images.pexels.com/photos/259967/pexels-photo-259967.jpeg?auto=compress\u0026cs=tinysrgb\u0026dpr=1\u0026fit=crop\u0026h=200\u0026w=280"},"liked":false,"alt":"Macchu
        Picchu, Peru"},{"id":2929906,"width":4032,"height":3024,"url":"https://www.pexels.com/photo/photo-of-machu-picchu-2929906/","photographer":"Chelsea
        Cook","photographer_url":"https://www.pexels.com/@chelsea-cook-1520634","photographer_id":1520634,"avg_color":"#516365","src":{"original":"https://images.pexels.com/photos/2929906/pexels-photo-2929906.jpeg","large2x":"https://images.pexels.com/photos/2929906/pexels-photo-2929906.jpeg?auto=compress\u0026cs=tinysrgb\u0026dpr=2\u0026h=650\u0026w=940","large":"https://images.pexels.com/photos/2929906/pexels-photo-2929906.jpeg?auto=compress\u0026cs=tinysrgb\u0026h=650\u0026w=940","medium":"https://images.pexels.com/photos/2929906/pexels-photo-2929906.jpeg?auto=compress\u0026cs=tinysrgb\u0026h=350","small":"https://images.pexels.com/photos/2929906/pexels-photo-2929906.jpeg?auto=compress\u0026cs=tinysrgb\u0026h=130","portrait":"https://images.pexels.com/photos/2929906/pexels-photo-2929906.jpeg?auto=compress\u0026cs=tinysrgb\u0026fit=crop\u0026h=1200\u0026w=800","landscape":"https://images.pexels.com/photos/2929906/pexels-photo-2929906.jpeg?auto=compress\u0026cs=tinysrgb\u0026fit=crop\u0026h=627\u0026w=1200","tiny":"https://images.pexels.com/photos/2929906/pexels-photo-2929906.jpeg?auto=compress\u0026cs=tinysrgb\u0026dpr=1\u0026fit=crop\u0026h=200\u0026w=280"},"liked":false,"alt":"Photo
        of Machu Picchu"},{"id":2516418,"width":2048,"height":2560,"url":"https://www.pexels.com/photo/aerial-photography-of-machu-picchu-in-peru-2516418/","photographer":"Trace
        Hudson","photographer_url":"https://www.pexels.com/@tracehudson","photographer_id":1235883,"avg_color":"#5B564C","src":{"original":"https://images.pexels.com/photos/2516418/pexels-photo-2516418.jpeg","large2x":"https://images.pexels.com/photos/2516418/pexels-photo-2516418.jpeg?auto=compress\u0026cs=tinysrgb\u0026dpr=2\u0026h=650\u0026w=940","large":"https://images.pexels.com/photos/2516418/pexels-photo-2516418.jpeg?auto=compress\u0026cs=tinysrgb\u0026h=650\u0026w=940","medium":"https://images.pexels.com/photos/2516418/pexels-photo-2516418.jpeg?auto=compress\u0026cs=tinysrgb\u0026h=350","small":"https://images.pexels.com/photos/2516418/pexels-photo-2516418.jpeg?auto=compress\u0026cs=tinysrgb\u0026h=130","portrait":"https://images.pexels.com/photos/2516418/pexels-photo-2516418.jpeg?auto=compress\u0026cs=tinysrgb\u0026fit=crop\u0026h=1200\u0026w=800","landscape":"https://images.pexels.com/photos/2516418/pexels-photo-2516418.jpeg?auto=compress\u0026cs=tinysrgb\u0026fit=crop\u0026h=627\u0026w=1200","tiny":"https://images.pexels.com/photos/2516418/pexels-photo-2516418.jpeg?auto=compress\u0026cs=tinysrgb\u0026dpr=1\u0026fit=crop\u0026h=200\u0026w=280"},"liked":false,"alt":"Aerial
        Photography of Machu Picchu in Peru"},{"id":1419944,"width":4928,"height":3264,"url":"https://www.pexels.com/photo/round-white-and-brown-mug-with-coffee-beans-1419944/","photographer":"Lukas","photographer_url":"https://www.pexels.com/@goumbik","photographer_id":89898,"avg_color":"#C3B495","src":{"original":"https://images.pexels.com/photos/1419944/pexels-photo-1419944.jpeg","large2x":"https://images.pexels.com/photos/1419944/pexels-photo-1419944.jpeg?auto=compress\u0026cs=tinysrgb\u0026dpr=2\u0026h=650\u0026w=940","large":"https://images.pexels.com/photos/1419944/pexels-photo-1419944.jpeg?auto=compress\u0026cs=tinysrgb\u0026h=650\u0026w=940","medium":"https://images.pexels.com/photos/1419944/pexels-photo-1419944.jpeg?auto=compress\u0026cs=tinysrgb\u0026h=350","small":"https://images.pexels.com/photos/1419944/pexels-photo-1419944.jpeg?auto=compress\u0026cs=tinysrgb\u0026h=130","portrait":"https://images.pexels.com/photos/1419944/pexels-photo-1419944.jpeg?auto=compress\u0026cs=tinysrgb\u0026fit=crop\u0026h=1200\u0026w=800","landscape":"https://images.pexels.com/photos/1419944/pexels-photo-1419944.jpeg?auto=compress\u0026cs=tinysrgb\u0026fit=crop\u0026h=627\u0026w=1200","tiny":"https://images.pexels.com/photos/1419944/pexels-photo-1419944.jpeg?auto=compress\u0026cs=tinysrgb\u0026dpr=1\u0026fit=crop\u0026h=200\u0026w=280"},"liked":false,"alt":"Round
        White and Brown Mug With Coffee Beans"},{"id":3452236,"width":4896,"height":3264,"url":"https://www.pexels.com/photo/girls-in-assorted-color-apparels-3452236/","photographer":"Junior
        Machado","photographer_url":"https://www.pexels.com/@junior-machado-1821155","photographer_id":1821155,"avg_color":"#574642","src":{"original":"https://images.pexels.com/photos/3452236/pexels-photo-3452236.jpeg","large2x":"https://images.pexels.com/photos/3452236/pexels-photo-3452236.jpeg?auto=compress\u0026cs=tinysrgb\u0026dpr=2\u0026h=650\u0026w=940","large":"https://images.pexels.com/photos/3452236/pexels-photo-3452236.jpeg?auto=compress\u0026cs=tinysrgb\u0026h=650\u0026w=940","medium":"https://images.pexels.com/photos/3452236/pexels-photo-3452236.jpeg?auto=compress\u0026cs=tinysrgb\u0026h=350","small":"https://images.pexels.com/photos/3452236/pexels-photo-3452236.jpeg?auto=compress\u0026cs=tinysrgb\u0026h=130","portrait":"https://images.pexels.com/photos/3452236/pexels-photo-3452236.jpeg?auto=compress\u0026cs=tinysrgb\u0026fit=crop\u0026h=1200\u0026w=800","landscape":"https://images.pexels.com/photos/3452236/pexels-photo-3452236.jpeg?auto=compress\u0026cs=tinysrgb\u0026fit=crop\u0026h=627\u0026w=1200","tiny":"https://images.pexels.com/photos/3452236/pexels-photo-3452236.jpeg?auto=compress\u0026cs=tinysrgb\u0026dpr=1\u0026fit=crop\u0026h=200\u0026w=280"},"liked":false,"alt":"Girls
        in Assorted-color Apparels"},{"id":2929910,"width":3024,"height":4032,"url":"https://www.pexels.com/photo/photo-of-blue-doorway-2929910/","photographer":"Chelsea
        Cook","photographer_url":"https://www.pexels.com/@chelsea-cook-1520634","photographer_id":1520634,"avg_color":"#555956","src":{"original":"https://images.pexels.com/photos/2929910/pexels-photo-2929910.jpeg","large2x":"https://images.pexels.com/photos/2929910/pexels-photo-2929910.jpeg?auto=compress\u0026cs=tinysrgb\u0026dpr=2\u0026h=650\u0026w=940","large":"https://images.pexels.com/photos/2929910/pexels-photo-2929910.jpeg?auto=compress\u0026cs=tinysrgb\u0026h=650\u0026w=940","medium":"https://images.pexels.com/photos/2929910/pexels-photo-2929910.jpeg?auto=compress\u0026cs=tinysrgb\u0026h=350","small":"https://images.pexels.com/photos/2929910/pexels-photo-2929910.jpeg?auto=compress\u0026cs=tinysrgb\u0026h=130","portrait":"https://images.pexels.com/photos/2929910/pexels-photo-2929910.jpeg?auto=compress\u0026cs=tinysrgb\u0026fit=crop\u0026h=1200\u0026w=800","landscape":"https://images.pexels.com/photos/2929910/pexels-photo-2929910.jpeg?auto=compress\u0026cs=tinysrgb\u0026fit=crop\u0026h=627\u0026w=1200","tiny":"https://images.pexels.com/photos/2929910/pexels-photo-2929910.jpeg?auto=compress\u0026cs=tinysrgb\u0026dpr=1\u0026fit=crop\u0026h=200\u0026w=280"},"liked":false,"alt":"Photo
        Of Blue Doorway"},{"id":1658572,"width":6000,"height":4000,"url":"https://www.pexels.com/photo/sand-dunes-during-golden-hour-1658572/","photographer":"Ralph
        David","photographer_url":"https://www.pexels.com/@rlpdavid","photographer_id":384211,"avg_color":"#838481","src":{"original":"https://images.pexels.com/photos/1658572/pexels-photo-1658572.jpeg","large2x":"https://images.pexels.com/photos/1658572/pexels-photo-1658572.jpeg?auto=compress\u0026cs=tinysrgb\u0026dpr=2\u0026h=650\u0026w=940","large":"https://images.pexels.com/photos/1658572/pexels-photo-1658572.jpeg?auto=compress\u0026cs=tinysrgb\u0026h=650\u0026w=940","medium":"https://images.pexels.com/photos/1658572/pexels-photo-1658572.jpeg?auto=compress\u0026cs=tinysrgb\u0026h=350","small":"https://images.pexels.com/photos/1658572/pexels-photo-1658572.jpeg?auto=compress\u0026cs=tinysrgb\u0026h=130","portrait":"https://images.pexels.com/photos/1658572/pexels-photo-1658572.jpeg?auto=compress\u0026cs=tinysrgb\u0026fit=crop\u0026h=1200\u0026w=800","landscape":"https://images.pexels.com/photos/1658572/pexels-photo-1658572.jpeg?auto=compress\u0026cs=tinysrgb\u0026fit=crop\u0026h=627\u0026w=1200","tiny":"https://images.pexels.com/photos/1658572/pexels-photo-1658572.jpeg?auto=compress\u0026cs=tinysrgb\u0026dpr=1\u0026fit=crop\u0026h=200\u0026w=280"},"liked":false,"alt":"Sand
        Dunes During Golden Hour"},{"id":2424395,"width":2047,"height":2560,"url":"https://www.pexels.com/photo/photo-of-man-standing-near-llama-2424395/","photographer":"Trace
        Hudson","photographer_url":"https://www.pexels.com/@tracehudson","photographer_id":1235883,"avg_color":"#696652","src":{"original":"https://images.pexels.com/photos/2424395/pexels-photo-2424395.jpeg","large2x":"https://images.pexels.com/photos/2424395/pexels-photo-2424395.jpeg?auto=compress\u0026cs=tinysrgb\u0026dpr=2\u0026h=650\u0026w=940","large":"https://images.pexels.com/photos/2424395/pexels-photo-2424395.jpeg?auto=compress\u0026cs=tinysrgb\u0026h=650\u0026w=940","medium":"https://images.pexels.com/photos/2424395/pexels-photo-2424395.jpeg?auto=compress\u0026cs=tinysrgb\u0026h=350","small":"https://images.pexels.com/photos/2424395/pexels-photo-2424395.jpeg?auto=compress\u0026cs=tinysrgb\u0026h=130","portrait":"https://images.pexels.com/photos/2424395/pexels-photo-2424395.jpeg?auto=compress\u0026cs=tinysrgb\u0026fit=crop\u0026h=1200\u0026w=800","landscape":"https://images.pexels.com/photos/2424395/pexels-photo-2424395.jpeg?auto=compress\u0026cs=tinysrgb\u0026fit=crop\u0026h=627\u0026w=1200","tiny":"https://images.pexels.com/photos/2424395/pexels-photo-2424395.jpeg?auto=compress\u0026cs=tinysrgb\u0026dpr=1\u0026fit=crop\u0026h=200\u0026w=280"},"liked":false,"alt":"Photo
        of Man Standing Near Llama"},{"id":2539417,"width":4256,"height":2832,"url":"https://www.pexels.com/photo/green-and-brown-mountains-2539417/","photographer":"Sergei
        A","photographer_url":"https://www.pexels.com/@sergei-a-1322276","photographer_id":1322276,"avg_color":"#677C89","src":{"original":"https://images.pexels.com/photos/2539417/pexels-photo-2539417.jpeg","large2x":"https://images.pexels.com/photos/2539417/pexels-photo-2539417.jpeg?auto=compress\u0026cs=tinysrgb\u0026dpr=2\u0026h=650\u0026w=940","large":"https://images.pexels.com/photos/2539417/pexels-photo-2539417.jpeg?auto=compress\u0026cs=tinysrgb\u0026h=650\u0026w=940","medium":"https://images.pexels.com/photos/2539417/pexels-photo-2539417.jpeg?auto=compress\u0026cs=tinysrgb\u0026h=350","small":"https://images.pexels.com/photos/2539417/pexels-photo-2539417.jpeg?auto=compress\u0026cs=tinysrgb\u0026h=130","portrait":"https://images.pexels.com/photos/2539417/pexels-photo-2539417.jpeg?auto=compress\u0026cs=tinysrgb\u0026fit=crop\u0026h=1200\u0026w=800","landscape":"https://images.pexels.com/photos/2539417/pexels-photo-2539417.jpeg?auto=compress\u0026cs=tinysrgb\u0026fit=crop\u0026h=627\u0026w=1200","tiny":"https://images.pexels.com/photos/2539417/pexels-photo-2539417.jpeg?auto=compress\u0026cs=tinysrgb\u0026dpr=1\u0026fit=crop\u0026h=200\u0026w=280"},"liked":false,"alt":"Green
        and Brown Mountains"},{"id":3156779,"width":4000,"height":6000,"url":"https://www.pexels.com/photo/photo-of-people-near-church-3156779/","photographer":"Viajero
        Cool","photographer_url":"https://www.pexels.com/@viajerocool","photographer_id":1653036,"avg_color":"#8B8379","src":{"original":"https://images.pexels.com/photos/3156779/pexels-photo-3156779.jpeg","large2x":"https://images.pexels.com/photos/3156779/pexels-photo-3156779.jpeg?auto=compress\u0026cs=tinysrgb\u0026dpr=2\u0026h=650\u0026w=940","large":"https://images.pexels.com/photos/3156779/pexels-photo-3156779.jpeg?auto=compress\u0026cs=tinysrgb\u0026h=650\u0026w=940","medium":"https://images.pexels.com/photos/3156779/pexels-photo-3156779.jpeg?auto=compress\u0026cs=tinysrgb\u0026h=350","small":"https://images.pexels.com/photos/3156779/pexels-photo-3156779.jpeg?auto=compress\u0026cs=tinysrgb\u0026h=130","portrait":"https://images.pexels.com/photos/3156779/pexels-photo-3156779.jpeg?auto=compress\u0026cs=tinysrgb\u0026fit=crop\u0026h=1200\u0026w=800","landscape":"https://images.pexels.com/photos/3156779/pexels-photo-3156779.jpeg?auto=compress\u0026cs=tinysrgb\u0026fit=crop\u0026h=627\u0026w=1200","tiny":"https://images.pexels.com/photos/3156779/pexels-photo-3156779.jpeg?auto=compress\u0026cs=tinysrgb\u0026dpr=1\u0026fit=crop\u0026h=200\u0026w=280"},"liked":false,"alt":"Photo
        of People Near Church"},{"id":1419946,"width":4928,"height":3264,"url":"https://www.pexels.com/photo/gray-coffee-press-1419946/","photographer":"Lukas","photographer_url":"https://www.pexels.com/@goumbik","photographer_id":89898,"avg_color":"#C5B190","src":{"original":"https://images.pexels.com/photos/1419946/pexels-photo-1419946.jpeg","large2x":"https://images.pexels.com/photos/1419946/pexels-photo-1419946.jpeg?auto=compress\u0026cs=tinysrgb\u0026dpr=2\u0026h=650\u0026w=940","large":"https://images.pexels.com/photos/1419946/pexels-photo-1419946.jpeg?auto=compress\u0026cs=tinysrgb\u0026h=650\u0026w=940","medium":"https://images.pexels.com/photos/1419946/pexels-photo-1419946.jpeg?auto=compress\u0026cs=tinysrgb\u0026h=350","small":"https://images.pexels.com/photos/1419946/pexels-photo-1419946.jpeg?auto=compress\u0026cs=tinysrgb\u0026h=130","portrait":"https://images.pexels.com/photos/1419946/pexels-photo-1419946.jpeg?auto=compress\u0026cs=tinysrgb\u0026fit=crop\u0026h=1200\u0026w=800","landscape":"https://images.pexels.com/photos/1419946/pexels-photo-1419946.jpeg?auto=compress\u0026cs=tinysrgb\u0026fit=crop\u0026h=627\u0026w=1200","tiny":"https://images.pexels.com/photos/1419946/pexels-photo-1419946.jpeg?auto=compress\u0026cs=tinysrgb\u0026dpr=1\u0026fit=crop\u0026h=200\u0026w=280"},"liked":false,"alt":"Gray
        Coffee Press"},{"id":3463964,"width":4032,"height":3024,"url":"https://www.pexels.com/photo/green-and-brown-mountain-under-white-clouds-3463964/","photographer":"Sparks
        Darby","photographer_url":"https://www.pexels.com/@sparks-darby-1868885","photographer_id":1868885,"avg_color":"#5E756C","src":{"original":"https://images.pexels.com/photos/3463964/pexels-photo-3463964.jpeg","large2x":"https://images.pexels.com/photos/3463964/pexels-photo-3463964.jpeg?auto=compress\u0026cs=tinysrgb\u0026dpr=2\u0026h=650\u0026w=940","large":"https://images.pexels.com/photos/3463964/pexels-photo-3463964.jpeg?auto=compress\u0026cs=tinysrgb\u0026h=650\u0026w=940","medium":"https://images.pexels.com/photos/3463964/pexels-photo-3463964.jpeg?auto=compress\u0026cs=tinysrgb\u0026h=350","small":"https://images.pexels.com/photos/3463964/pexels-photo-3463964.jpeg?auto=compress\u0026cs=tinysrgb\u0026h=130","portrait":"https://images.pexels.com/photos/3463964/pexels-photo-3463964.jpeg?auto=compress\u0026cs=tinysrgb\u0026fit=crop\u0026h=1200\u0026w=800","landscape":"https://images.pexels.com/photos/3463964/pexels-photo-3463964.jpeg?auto=compress\u0026cs=tinysrgb\u0026fit=crop\u0026h=627\u0026w=1200","tiny":"https://images.pexels.com/photos/3463964/pexels-photo-3463964.jpeg?auto=compress\u0026cs=tinysrgb\u0026dpr=1\u0026fit=crop\u0026h=200\u0026w=280"},"liked":false,"alt":"Green
        and Brown Mountain Under White Clouds"},{"id":3290067,"width":2959,"height":4439,"url":"https://www.pexels.com/photo/photo-of-man-sitting-on-boat-3290067/","photographer":"Alex
        Azabache","photographer_url":"https://www.pexels.com/@alexazabache","photographer_id":1664241,"avg_color":"#889394","src":{"original":"https://images.pexels.com/photos/3290067/pexels-photo-3290067.jpeg","large2x":"https://images.pexels.com/photos/3290067/pexels-photo-3290067.jpeg?auto=compress\u0026cs=tinysrgb\u0026dpr=2\u0026h=650\u0026w=940","large":"https://images.pexels.com/photos/3290067/pexels-photo-3290067.jpeg?auto=compress\u0026cs=tinysrgb\u0026h=650\u0026w=940","medium":"https://images.pexels.com/photos/3290067/pexels-photo-3290067.jpeg?auto=compress\u0026cs=tinysrgb\u0026h=350","small":"https://images.pexels.com/photos/3290067/pexels-photo-3290067.jpeg?auto=compress\u0026cs=tinysrgb\u0026h=130","portrait":"https://images.pexels.com/photos/3290067/pexels-photo-3290067.jpeg?auto=compress\u0026cs=tinysrgb\u0026fit=crop\u0026h=1200\u0026w=800","landscape":"https://images.pexels.com/photos/3290067/pexels-photo-3290067.jpeg?auto=compress\u0026cs=tinysrgb\u0026fit=crop\u0026h=627\u0026w=1200","tiny":"https://images.pexels.com/photos/3290067/pexels-photo-3290067.jpeg?auto=compress\u0026cs=tinysrgb\u0026dpr=1\u0026fit=crop\u0026h=200\u0026w=280"},"liked":false,"alt":"Photo
        Of Man Sitting On Boat"}],"total_results":809,"next_page":"https://api.pexels.com/v1/search/?page=2\u0026per_page=15\u0026query=Peru"}'
  recorded_at: Mon, 07 Aug 2023 21:11:20 GMT
recorded_with: VCR 6.2.0
